{
  "deviceOrientation": "portrait",
  "openDataContext": "SubGame",
  "showStatusBar": false,
  "networkTimeout": {
    "request": 10000,
    "connectSocket": 10000,
    "uploadFile": 10000,
    "downloadFile": 10000
  },
  "navigateToMiniProgramAppIdList":[
	  "wx120efbb1cc482428"
  ]
}